﻿{
  "content": [
    {
      "field": {
        "description": "LightBase's uses ID",
        "datatype": "Text",
        "required": true,
        "alias": "id",
        "multivalued": false,
        "indices": [
          "Textual",
          "Ordenado"
        ],
        "name": "id_user"
      }
    },
    {
      "field": {
        "description": "User's name",
        "datatype": "Text",
        "required": true,
        "alias": "name",
        "multivalued": false,
        "indices": [
          "Textual",
          "Ordenado"
        ],
        "name": "name_user"
      }
    },
    {
      "field": {
        "description": "User's mail",
        "datatype": "Text",
        "required": true,
        "alias": "email",
        "multivalued": false,
        "indices": [
          "Textual",
          "Ordenado"
        ],
        "name": "email_user"
      }
    },
    {
      "field": {
        "description": "User's password",
        "datatype": "Text",
        "required": true,
        "alias": "passwd",
        "multivalued": false,
        "indices": [
          "Textual",
          "Ordenado"
        ],
        "name": "passwd_user"
      }
    },
    {
      "group": {
        "content": [
          {
            "field": {
              "description": "Name of the base the user can access",
              "datatype": "Text",
              "required": false,
              "alias": "name_base",
              "multivalued": false,
              "indices": [
                "Textual",
                "Ordenado",
                "Fuzzy"
              ],
              "name": "name_base"
            }
          },
          {
            "field": {
              "description": "Type of access the user has",
              "datatype": "Text",
              "required": false,
              "alias": "access_groups",
              "multivalued": true,
              "indices": [
                "Textual",
                "Ordenado"
              ],
              "name": "access_groups"
            }
          }
        ],
        "metadata": {
          "multivalued": true,
          "alias": "bases",
          "description": "List of bases that the user can access and what kind of access it is",
          "name": "bases_user"
        }
      }
    },
    {
      "field": {
        "description": "Groups that user has access",
        "datatype": "Text",
        "required": false,
        "alias": "groups_user",
        "multivalued": true,
        "indices": [
          "Textual",
          "Ordenado"
        ],
        "name": "groups_user"
      }
    },
    {
      "field": {
        "description": "Date the user account was created",
        "datatype": "Date",
        "required": true,
        "alias": "creation_date",
        "multivalued": false,
        "indices": [
          "Textual",
          "Ordenado"
        ],
        "name": "creation_date_user"
      }
    },
    {
      "field": {
        "description": "Check if the user is activer or not",
        "datatype": "Boolean",
        "required": true,
        "alias": "status",
        "multivalued": false,
        "indices": [
          "Textual",
          "Ordenado"
        ],
        "name": "status_user"
      }
    }
  ],
  "metadata": {
    "idx_exp": false,
    "description": "LightBase's Users Meta Base.",
    "color": "#000000",
    "file_ext_time": 0,
    "idx_exp_time": 0,
    "idx_exp_url": "",
    "model": {
      "name_user": "Text",
      "status_user": "Boolean",
      "bases_user": [
        {
          "name_base": "Text",
          "access_type": "Text"
        }
      ],
      "id_user": "Text",
      "creation_date_user": "Date",
      "email_user": "Text",
      "passwd_user": "Text"
    },
    "password": "3Ax!vj6gV#DEtR",
    "dt_base": "29/05/2014 17:58:31",
    "file_ext": false,
    "name": "app_user",
    "id_base" : "1"
  }
}