﻿{
  "content": [
    {
      "field": {
        "description": "Id da ocorrencia",
        "datatype": "Text",
        "required": true,
        "alias": "id_ocorrencia",
        "multivalued": false,
        "indices": [
          "Textual",
          "Ordenado"
        ],
        "name": "id_ocorrencia"
      }
    },
    {
      "field": {
        "description": "Imagens",
        "datatype": "Image",
        "required": false,
        "alias": "lista_imagens",
        "multivalued": true,
        "indices": [
        ],
        "name": "lista_imagens"
      }
    },

    {
      "field": {
        "description": "Observacao",
        "datatype": "Text",
        "required": true,
        "alias": "observacao",
        "multivalued": false,
        "indices": [
        ],
        "name": "observacao"
      }
    },
    {
      "field": {
        "description": "Data da Ocorrencia",
        "datatype": "Date",
        "required": true,
        "alias": "data_ocorrencia",
        "multivalued": false,
        "indices": [

        ],
        "name": "data_ocorrencia"
      }
    },
    {
      "field": {
        "description": "Id pagina",
        "datatype": "Text",
        "required": true,
        "alias": "pagina_id",
        "multivalued": false,
        "indices": [
          "Textual",
          "Ordenado"
        ],
        "name": "pagina_id"
      }
    },
    {
      "field": {
        "description": "Data do envio",
        "datatype": "Date",
        "required": true,
        "alias": "data_envio",
        "multivalued": false,
        "indices": [

        ],
        "name": "data_envio"
      }
    },
    {
      "field": {
        "description": "Checagem de notificação no envio",
        "datatype": "Boolean",
        "required": true,
        "alias": "enviado",
        "multivalued": false,
        "indices": [

        ],
        "name": "enviado"
      }
    }
  ],
  
  "metadata": {
    "idx_exp": false,
    "description": "Anotações",
    "color": "#000000",
    "file_ext_time": 0,
    "idx_exp_time": 0,
    "idx_exp_url": "",
    "password": "3Ax!vj6gV#DEtR",
    "file_ext": false,
    "name": "$id_livro$_anotacoes"
  }
}